<?xml version="1.0" encoding="iso-8859-1"?>
<!-- Generator: Adobe Illustrator 19.0.0, SVG Export Plug-In . SVG Version: 6.00 Build 0)  -->
<svg version="1.1" id="Capa_1" xmlns="http://www.w3.org/2000/svg" xmlns:xlink="http://www.w3.org/1999/xlink" x="0px" y="0px"
	 viewBox="0 0 483.584 483.584" style="enable-background:new 0 0 483.584 483.584;" xml:space="preserve">
<g transform="matrix(1.25 0 0 -1.25 0 45)">
	<g>
		<g>
			<path style="fill:#AA8ED6;" d="M379.438-139.132l-101.251,37.478L240.378,22.261c-1.456,4.779-5.871,8.055-10.877,8.055
				c-4.995,0-9.421-3.277-10.877-8.055l-37.797-123.915L79.565-139.132c-4.471-1.661-7.43-5.916-7.43-10.672
				c0-4.756,2.958-9.023,7.43-10.672l101.217-37.456l37.808-127.693c1.434-4.836,5.871-8.146,10.911-8.146
				c5.04,0,9.478,3.311,10.911,8.146l37.82,127.693l101.217,37.456c4.46,1.65,7.418,5.916,7.418,10.672
				C386.867-145.049,383.909-140.794,379.438-139.132"/>
			<path style="fill:#FCAB40;" d="M151.848-264.333l-26.317,9.739l-10.24,37.547c-1.354,4.961-5.848,8.397-10.98,8.397
				c-5.131,0-9.626-3.436-10.98-8.397l-10.24-37.547l-26.317-9.739c-4.471-1.65-7.43-5.916-7.43-10.661
				c0-4.756,2.958-9.023,7.43-10.672l26.18-9.705l10.32-41.21c1.263-5.052,5.814-8.602,11.036-8.602
				c5.211,0,9.762,3.55,11.036,8.602l10.32,41.21l26.18,9.705c4.471,1.65,7.43,5.916,7.43,10.672
				C159.278-270.25,156.319-265.983,151.848-264.333"/>
			<path style="fill:#5DADEC;" d="M102.502-17.857L75.594-7.89l-9.956,26.897c-1.661,4.471-5.916,7.43-10.672,7.43
				c-4.767,0-9.023-2.958-10.672-7.43L34.327-7.89L7.43-17.857C2.958-19.506,0-23.773,0-28.529s2.958-9.011,7.43-10.672
				l26.897-9.956l9.967-26.908c1.65-4.471,5.905-7.43,10.672-7.43c4.756,0,9.011,2.958,10.672,7.43l9.956,26.908l26.908,9.956
				c4.471,1.661,7.43,5.916,7.43,10.672S106.974-19.506,102.502-17.857"/>
		</g>
	</g>
</g>
<g>
</g>
<g>
</g>
<g>
</g>
<g>
</g>
<g>
</g>
<g>
</g>
<g>
</g>
<g>
</g>
<g>
</g>
<g>
</g>
<g>
</g>
<g>
</g>
<g>
</g>
<g>
</g>
<g>
</g>
</svg>
